Data transformation
…
With the pipe, the data frame moves out of the call:

starwars |>
  filter(species == "Droid")

Rule 3: always returns a data frame

This means you can chain dplyr functions with the pipe.

starwars |>
  filter(species == "Human") |>
  select(name, height, mass)

# A tibble: 35 × 3
   name               height  mass
   <chr>               <int> <dbl>
 1 Luke Skywalker        172    77
 2 Darth Vader           202   136
 3 Leia Organa           150    49
 4 Owen Lars             178   120
 5 Beru Whitesun Lars    165    75
 6 Biggs Darklighter     183    84
 7 Obi-Wan Kenobi        182    77
 8 Anakin Skywalker      188    84
 9 Wilhuff Tarkin        180    NA
10 Han Solo              180    80
# ℹ 25 more rows
…
select(): keep or drop columns

starwars |>
  select(name, height, mass)

# A tibble: 87 × 3
   name               height  mass
   <chr>               <int> <dbl>
 1 Luke Skywalker        172    77
 2 C-3PO                 167    75
 3 R2-D2                  96    32
 4 Darth Vader           202   136
 5 Leia Organa           150    49
 6 Owen Lars             178   120
 7 Beru Whitesun Lars    165    75
 8 R5-D4                  97    32
 9 Biggs Darklighter     183    84
10 Obi-Wan Kenobi        182    77
# ℹ 77 more rows

select() with a minus sign

Use - to drop columns.

starwars |>
  select(-films, -vehicles, -starships)

# A tibble: 87 × 11
   name     height  mass hair_color skin_color eye_color birth_year sex   gender
   <chr>     <int> <dbl> <chr>      <chr>      <chr>          <dbl> <chr> <chr> 
 1 Luke Sk…    172    77 blond      fair       blue            19   male  mascu…
 2 C-3PO       167    75 <NA>       gold       yellow         112   none  mascu…
 3 R2-D2        96    32 <NA>       white, bl… red             33   none  mascu…
 4 Darth V…    202   136 none       white      yellow          41.9 male  mascu…
 5 Leia Or…    150    49 brown      light      brown           19   fema… femin…
 6 Owen La…    178   120 brown, gr… light      blue            52   male  mascu…
 7 Beru Wh…    165    75 brown      light      blue            47   fema… femin…
 8 R5-D4        97    32 <NA>       white, red red             NA   none  mascu…
 9 Biggs D…    183    84 black      light      brown           24   male  mascu…
10 Obi-Wan…    182    77 auburn, w… fair       blue-gray       57   male  mascu…
# ℹ 77 more rows
# ℹ 2 more variables: homeworld <chr>, species <chr>

select() with a range

Use : to select a range of consecutive columns.

starwars |>
  select(name:eye_color)

# A tibble: 87 × 6
   name               height  mass hair_color    skin_color  eye_color
   <chr>               <int> <dbl> <chr>         <chr>       <chr>    
 1 Luke Skywalker        172    77 blond         fair        blue     
 2 C-3PO                 167    75 <NA>          gold        yellow   
 3 R2-D2                  96    32 <NA>          white, blue red      
 4 Darth Vader           202   136 none          white       yellow   
 5 Leia Organa           150    49 brown         light       brown    
 6 Owen Lars             178   120 brown, grey   light       blue     
 7 Beru Whitesun Lars    165    75 brown         light       blue     
 8 R5-D4                  97    32 <NA>          white, red  red      
 9 Biggs Darklighter     183    84 black         light       brown    
10 Obi-Wan Kenobi        182    77 auburn, white fair        blue-gray
# ℹ 77 more rows

select() with helper functions

Functions like starts_with(), ends_with(), and contains() match column names by pattern.

starwars |>
  select(name, starts_with("h"))

# A tibble: 87 × 4
   name               height hair_color    homeworld
   <chr>               <int> <chr>         <chr>    
 1 Luke Skywalker        172 blond         Tatooine 
 2 C-3PO                 167 <NA>          Tatooine 
 3 R2-D2                  96 <NA>          Naboo    
 4 Darth Vader           202 none          Tatooine 
 5 Leia Organa           150 brown         Alderaan 
 6 Owen Lars             178 brown, grey   Tatooine 
 7 Beru Whitesun Lars    165 brown         Tatooine 
 8 R5-D4                  97 <NA>          Tatooine 
 9 Biggs Darklighter     183 black         Tatooine 
10 Obi-Wan Kenobi        182 auburn, white Stewjon  
# ℹ 77 more rows

Other useful helpers: ends_with(), contains(), matches(), where().

arrange(): sort rows

starwars |>
  arrange(height)

# A tibble: 87 × 14
   name     height  mass hair_color skin_color eye_color birth_year sex   gender
   <chr>     <int> <dbl> <chr>      <chr>      <chr>          <dbl> <chr> <chr> 
 1 Yoda         66    17 white      green      brown            896 male  mascu…
 2 Ratts T…     79    15 none       grey, blue unknown           NA male  mascu…
 3 Wicket …     88    20 brown      brown      brown              8 male  mascu…
 4 Dud Bolt     94    45 none       blue, grey yellow            NA male  mascu…
 5 R2-D2        96    32 <NA>       white, bl… red               33 none  mascu…
 6 R4-P17       96    NA none       silver, r… red, blue         NA none  femin…
 7 R5-D4        97    32 <NA>       white, red red               NA none  mascu…
 8 Sebulba     112    40 none       grey, red  orange            NA male  mascu…
 9 Gasgano     122    NA none       white, bl… black             NA male  mascu…
10 Watto       137    NA black      blue, grey yellow            NA male  mascu…
# ℹ 77 more rows
# ℹ 5 more variables: homeworld <chr>, species <chr>, films <list>,
#   vehicles <list>, starships <list>

arrange() in descending order

Wrap a variable in desc() to sort from high to low.

starwars |>
  arrange(desc(height))

# A tibble: 87 × 14
   name     height  mass hair_color skin_color eye_color birth_year sex   gender
   <chr>     <int> <dbl> <chr>      <chr>      <chr>          <dbl> <chr> <chr> 
 1 Yarael …    264    NA none       white      yellow          NA   male  mascu…
 2 Tarfful     234   136 brown      brown      blue            NA   male  mascu…
 3 Lama Su     229    88 none       grey       black           NA   male  mascu…
 4 Chewbac…    228   112 brown      unknown    blue           200   male  mascu…
 5 Roos Ta…    224    82 none       grey       orange          NA   male  mascu…
 6 Grievous    216   159 none       brown, wh… green, y…       NA   male  mascu…
 7 Taun We     213    NA none       grey       black           NA   fema… femin…
 8 Rugor N…    206    NA none       green      orange          NA   male  mascu…
 9 Tion Me…    206    80 none       grey       black           NA   male  mascu…
10 Darth V…    202   136 none       white      yellow          41.9 male  mascu…
# ℹ 77 more rows
# ℹ 5 more variables: homeworld <chr>, species <chr>, films <list>,
#   vehicles <list>, starships <list>

relocate(): change column order

By default, relocate() moves columns to the front.

starwars |>
  relocate(species, homeworld)

# A tibble: 87 × 14
   species homeworld name           height  mass hair_color skin_color eye_color
   <chr>   <chr>     <chr>           <int> <dbl> <chr>      <chr>      <chr>    
 1 Human   Tatooine  Luke Skywalker    172    77 blond      fair       blue     
 2 Droid   Tatooine  C-3PO             167    75 <NA>       gold       yellow   
 3 Droid   Naboo     R2-D2              96    32 <NA>       white, bl… red      
 4 Human   Tatooine  Darth Vader       202   136 none       white      yellow   
 5 Human   Alderaan  Leia Organa       150    49 brown      light      brown    
 6 Human   Tatooine  Owen Lars         178   120 brown, gr… light      blue     
 7 Human   Tatooine  Beru Whitesun…    165    75 brown      light      blue     
 8 Droid   Tatooine  R5-D4              97    32 <NA>       white, red red      
 9 Human   Tatooine  Biggs Darklig…    183    84 black      light      brown    
10 Human   Stewjon   Obi-Wan Kenobi    182    77 auburn, w… fair       blue-gray
# ℹ 77 more rows
# ℹ 6 more variables: birth_year <dbl>, sex <chr>, gender <chr>, films <list>,
#   vehicles <list>, starships <list>

relocate() with .before and .after

starwars |>
  relocate(species, .after = name)

# A tibble: 87 × 14
   name    species height  mass hair_color skin_color eye_color birth_year sex  
   <chr>   <chr>    <int> <dbl> <chr>      <chr>      <chr>          <dbl> <chr>
 1 Luke S… Human      172    77 blond      fair       blue            19   male 
 2 C-3PO   Droid      167    75 <NA>       gold       yellow         112   none 
 3 R2-D2   Droid       96    32 <NA>       white, bl… red             33   none 
 4 Darth … Human      202   136 none       white      yellow          41.9 male 
 5 Leia O… Human      150    49 brown      light      brown           19   fema…
 6 Owen L… Human      178   120 brown, gr… light      blue            52   male 
 7 Beru W… Human      165    75 brown      light      blue            47   fema…
 8 R5-D4   Droid       97    32 <NA>       white, red red             NA   none 
 9 Biggs … Human      183    84 black      light      brown           24   male 
10 Obi-Wa… Human      182    77 auburn, w… fair       blue-gray       57   male 
# ℹ 77 more rows
# ℹ 5 more variables: gender <chr>, homeworld <chr>, films <list>,
#   vehicles <list>, starships <list>

rename(): change column names

New name goes on the left, old name on the right.

starwars |>
  rename(character = name, planet = homeworld)

# A tibble: 87 × 14
   character       height  mass hair_color skin_color eye_color birth_year sex  
   <chr>            <int> <dbl> <chr>      <chr>      <chr>          <dbl> <chr>
 1 Luke Skywalker     172    77 blond      fair       blue            19   male 
 2 C-3PO              167    75 <NA>       gold       yellow         112   none 
 3 R2-D2               96    32 <NA>       white, bl… red             33   none 
 4 Darth Vader        202   136 none       white      yellow          41.9 male 
 5 Leia Organa        150    49 brown      light      brown           19   fema…
 6 Owen Lars          178   120 brown, gr… light      blue            52   male 
 7 Beru Whitesun …    165    75 brown      light      blue            47   fema…
 8 R5-D4               97    32 <NA>       white, red red             NA   none 
 9 Biggs Darkligh…    183    84 black      light      brown           24   male 
10 Obi-Wan Kenobi     182    77 auburn, w… fair       blue-gray       57   male 
# ℹ 77 more rows
# ℹ 6 more variables: gender <chr>, planet <chr>, species <chr>, films <list>,
#   vehicles <list>, starships <list>

mutate(): create or modify columns

starwars |>
  mutate(height_m = height / 100) |>
  select(name, height, height_m)

# A tibble: 87 × 3
   name               height height_m
   <chr>               <int>    <dbl>
 1 Luke Skywalker        172     1.72
 2 C-3PO                 167     1.67
 3 R2-D2                  96     0.96
 4 Darth Vader           202     2.02
 5 Leia Organa           150     1.5 
 6 Owen Lars             178     1.78
 7 Beru Whitesun Lars    165     1.65
 8 R5-D4                  97     0.97
 9 Biggs Darklighter     183     1.83
10 Obi-Wan Kenobi        182     1.82
# ℹ 77 more rows

mutate(): multiple columns at once

starwars |>
  mutate(
    height_m = height / 100,
    bmi = mass / (height_m ^ 2)
  ) |>
  select(name, height_m, mass, bmi)

# A tibble: 87 × 4
   name               height_m  mass   bmi
   <chr>                 <dbl> <dbl> <dbl>
 1 Luke Skywalker         1.72    77  26.0
 2 C-3PO                  1.67    75  26.9
 3 R2-D2                  0.96    32  34.7
 4 Darth Vader            2.02   136  33.3
 5 Leia Organa            1.5     49  21.8
 6 Owen Lars              1.78   120  37.9
 7 Beru Whitesun Lars     1.65    75  27.5
 8 R5-D4                  0.97    32  34.0
 9 Biggs Darklighter      1.83    84  25.1
10 Obi-Wan Kenobi         1.82    77  23.2
# ℹ 77 more rows

transmute(): mutate and keep only new columns

starwars |>
  transmute(
    name,
    height_m = height / 100,
    bmi = mass / (height / 100) ^ 2
  )

# A tibble: 87 × 3
   name               height_m   bmi
   <chr>                 <dbl> <dbl>
 1 Luke Skywalker         1.72  26.0
 2 C-3PO                  1.67  26.9
 3 R2-D2                  0.96  34.7
 4 Darth Vader            2.02  33.3
 5 Leia Organa            1.5   21.8
 6 Owen Lars              1.78  37.9
 7 Beru Whitesun Lars     1.65  27.5
 8 R5-D4                  0.97  34.0
 9 Biggs Darklighter      1.83  25.1
10 Obi-Wan Kenobi         1.82  23.2
# ℹ 77 more rows
…
summarize() returns one row per group, with the columns you define.

group_by(): compute by group

group_by() on its own does not change the data, but it tells dplyr that subsequent operations should run per group.

starwars |>
  group_by(species) |>
  summarize(
    n = n(),
    avg_height = mean(height, na.rm = TRUE)
  )

# A tibble: 38 × 3
   species       n avg_height
   <chr>     <int>      <dbl>
 1 Aleena        1        79 
 2 Besalisk      1       198 
 3 Cerean        1       198 
 4 Chagrian      1       196 
 5 Clawdite      1       168 
 6 Droid         6       131.
 7 Dug           1       112 
 8 Ewok          1        88 
 9 Geonosian     1       183 
10 Gungan        3       209.
# ℹ 28 more rows

group_by() with multiple variables

starwars |>
  group_by(species, gender) |>
  summarize(n = n(), .groups = "drop")

# A tibble: 42 × 3
   species   gender        n
   <chr>     <chr>     <int>
 1 Aleena    masculine     1
 2 Besalisk  masculine     1
 3 Cerean    masculine     1
 4 Chagrian  masculine     1
 5 Clawdite  feminine      1
 6 Droid     feminine      1
 7 Droid     masculine     5
 8 Dug       masculine     1
 9 Ewok      masculine     1
10 Geonosian masculine     1
# ℹ 32 more rows

count(): shortcut for grouped counts

count(x) is equivalent to group_by(x) |> summarize(n = n()).

starwars |>
  count(species)

# A tibble: 38 × 2
   species       n
   <chr>     <int>
 1 Aleena        1
 2 Besalisk      1
 3 Cerean        1
 4 Chagrian      1
 5 Clawdite      1
 6 Droid         6
 7 Dug           1
 8 Ewok          1
 9 Geonosian     1
10 Gungan        3
# ℹ 28 more rows

count() with sorting

starwars |>
  count(species, sort = TRUE)

# A tibble: 38 × 2
   species      n
   <chr>    <int>
 1 Human       35
 2 Droid        6
 3 <NA>         4
 4 Gungan       3
 5 Kaminoan     2
 6 Mirialan     2
 7 Twi'lek      2
 8 Wookiee      2
 9 Zabrak       2
10 Aleena       1
# ℹ 28 more rows
…
count()
Shortcut for grouped counts

Putting it all together

starwars |>
  filter(!is.na(height), !is.na(mass)) |>
  mutate(bmi = mass / (height / 100) ^ 2) |>
  group_by(species) |>
  summarize(avg_bmi = mean(bmi), n = n()) |>
  arrange(desc(avg_bmi))

# A tibble: 32 × 3
   species        avg_bmi     n
   <chr>            <dbl> <int>
 1 Hutt             443.      1
 2 Vulptereen        50.9     1
 3 Yoda's species    39.0     1
 4 Kaleesh           34.1     1
 5 Droid             32.7     4
 6 Dug               31.9     1
 7 Trandoshan        31.3     1
 8 Sullustan         26.6     1
 9 Zabrak            26.1     1
10 Besalisk          26.0     1
# ℹ 22 more rows
…
